{
    "KPlugin": {
        "Authors": [
            {
                "Email": "paristo@gmail.com",
                "Name": "Risto Saukonpää",
                "Name[ar]": "Risto Saukonpää",
                "Name[az]": "Risto Saukonpää",
                "Name[be]": "Risto Saukonpää",
                "Name[ca@valencia]": "Risto Saukonpää",
                "Name[ca]": "Risto Saukonpää",
                "Name[en_GB]": "Risto Saukonpää",
                "Name[es]": "Risto Saukonpää",
                "Name[eu]": "Risto Saukonpää",
                "Name[fi]": "Risto Saukonpää",
                "Name[fr]": "Risto Saukonpää",
                "Name[it]": "Risto Saukonpää",
                "Name[ka]": "Risto Saukonpää",
                "Name[ko]": "Risto Saukonpää",
                "Name[lt]": "Risto Saukonpää",
                "Name[nl]": "Risto Saukonpää",
                "Name[nn]": "Risto Saukonpää",
                "Name[pl]": "Risto Saukonpää",
                "Name[pt]": "Risto Saukonpää",
                "Name[pt_BR]": "Risto Saukonpää",
                "Name[ru]": "Risto Saukonpää",
                "Name[sk]": "Risto Saukonpää",
                "Name[sl]": "Risto Saukonpää",
                "Name[sv]": "Risto Saukonpää",
                "Name[tr]": "Risto Saukonpää",
                "Name[uk]": "Рісто Сауконпаа",
                "Name[x-test]": "xxRisto Saukonpääxx",
                "Name[zh_CN]": "Risto Saukonpää"
            }
        ],
        "Id": "Path",
        "License": "LGPLv3",
        "Name": "Path",
        "Name[ar]": "المسار",
        "Name[az]": "Cığır",
        "Name[be]": "Шлях",
        "Name[ca@valencia]": "Camí",
        "Name[ca]": "Camí",
        "Name[cs]": "Cesta",
        "Name[da]": "Sti",
        "Name[de]": "Pfad",
        "Name[en_GB]": "Path",
        "Name[es]": "Camino",
        "Name[et]": "Tee",
        "Name[eu]": "Bidezidorra",
        "Name[fi]": "Polku",
        "Name[fr]": "Emplacement",
        "Name[gl]": "Ruta",
        "Name[hi]": "पथ",
        "Name[hu]": "Ösvény",
        "Name[ia]": "Percurso",
        "Name[id]": "Path",
        "Name[it]": "Percorso",
        "Name[ka]": "ბილიკი",
        "Name[ko]": "오솔길",
        "Name[lt]": "Takelis",
        "Name[nl]": "Pad",
        "Name[nn]": "Sti",
        "Name[pa]": "ਮਾਰਗ",
        "Name[pl]": "Ścieżka",
        "Name[pt]": "Caminho",
        "Name[pt_BR]": "Caminho",
        "Name[ro]": "Cărare",
        "Name[ru]": "Тропа",
        "Name[sk]": "Cesta",
        "Name[sl]": "Pot",
        "Name[sr@ijekavian]": "Стаза",
        "Name[sr@ijekavianlatin]": "Staza",
        "Name[sr@latin]": "Staza",
        "Name[sr]": "Стаза",
        "Name[sv]": "Stig",
        "Name[tg]": "Пайроҳа",
        "Name[tr]": "Yol",
        "Name[uk]": "Шлях",
        "Name[x-test]": "xxPathxx",
        "Name[zh_CN]": "Path 林道",
        "Name[zh_TW]": "路徑"
    }
}
