{
    "KPlugin": {
        "Authors": [
            {
                "Email": "pewmuffin@gmail.com",
                "Name": "Sandra Smukaste",
                "Name[ar]": "Sandra Smukaste",
                "Name[az]": "Sandra Smukaste",
                "Name[be]": "Sandra Smukaste",
                "Name[ca@valencia]": "Sandra Smukaste",
                "Name[ca]": "Sandra Smukaste",
                "Name[en_GB]": "Sandra Smukaste",
                "Name[es]": "Sandra Smukaste",
                "Name[eu]": "Sandra Smukaste",
                "Name[fi]": "Sandra Smukaste",
                "Name[fr]": "Sandra Smukaste",
                "Name[it]": "Sandra Smukaste",
                "Name[ka]": "Sandra Smukaste",
                "Name[ko]": "Sandra Smukaste",
                "Name[lt]": "Sandra Smukaste",
                "Name[nl]": "Sandra Smukaste",
                "Name[nn]": "Sandra Smukaste",
                "Name[pl]": "Sandra Smukaste",
                "Name[pt]": "Sandra Smukaste",
                "Name[pt_BR]": "Sandra Smukaste",
                "Name[ru]": "Sandra Smukaste",
                "Name[sk]": "Sandra Smukaste",
                "Name[sl]": "Sandra Smukaste",
                "Name[sv]": "Sandra Smukaste",
                "Name[tr]": "Sandra Smukaste",
                "Name[uk]": "Сандра Смукасте",
                "Name[x-test]": "xxSandra Smukastexx",
                "Name[zh_CN]": "Sandra Smukaste"
            }
        ],
        "Id": "Flow",
        "License": "CC-BY-SA-4.0",
        "Name": "Flow",
        "Name[ar]": "التّدفّق",
        "Name[az]": "Axın",
        "Name[be]": "Плынь",
        "Name[ca@valencia]": "Flux",
        "Name[ca]": "Flux",
        "Name[cs]": "Proud",
        "Name[da]": "Flow",
        "Name[de]": "Fließen",
        "Name[en_GB]": "Flow",
        "Name[es]": "Flujo",
        "Name[et]": "Voog",
        "Name[eu]": "Isuri",
        "Name[fi]": "Virtaus",
        "Name[fr]": "Flux",
        "Name[hi]": "बहाव",
        "Name[hu]": "Flow",
        "Name[ia]": "Fluxo (Flow)",
        "Name[it]": "Flusso",
        "Name[ka]": "დინება",
        "Name[ko]": "흐름",
        "Name[lt]": "Srautas",
        "Name[nl]": "Flow",
        "Name[nn]": "Flyt",
        "Name[pa]": "ਵਹਿਣ",
        "Name[pl]": "Przepływ",
        "Name[pt]": "Fluxo",
        "Name[pt_BR]": "Fluxo",
        "Name[ro]": "Flux",
        "Name[ru]": "Поток",
        "Name[sk]": "Prúd",
        "Name[sl]": "Pretok",
        "Name[sv]": "Flöde",
        "Name[tr]": "Akış",
        "Name[uk]": "Потік",
        "Name[x-test]": "xxFlowxx",
        "Name[zh_CN]": "Flow 流彩"
    }
}
