{
    "KPlugin": {
        "Authors": [
            {
                "Email": "Ken Vermette <vermette@gmail.com>",
                "Name": "Ken Vermette",
                "Name[ar]": "Ken Vermette",
                "Name[az]": "Ken Vermette",
                "Name[be]": "Ken Vermette",
                "Name[ca@valencia]": "Ken Vermette",
                "Name[ca]": "Ken Vermette",
                "Name[en_GB]": "Ken Vermette",
                "Name[es]": "Ken Vermette",
                "Name[eu]": "Ken Vermette",
                "Name[fi]": "Ken Vermette",
                "Name[fr]": "Ken Vermette",
                "Name[it]": "Ken Vermette",
                "Name[ka]": "Ken Vermette",
                "Name[ko]": "Ken Vermette",
                "Name[lt]": "Ken Vermette",
                "Name[nl]": "Ken Vermette",
                "Name[nn]": "Ken Vermette",
                "Name[pl]": "Ken Vermette",
                "Name[pt]": "Ken Vermette",
                "Name[pt_BR]": "Ken Vermette",
                "Name[ru]": "Ken Vermette",
                "Name[sk]": "Ken Vermette",
                "Name[sl]": "Ken Vermette",
                "Name[sv]": "Ken Vermette",
                "Name[tr]": "Ken Vermette",
                "Name[uk]": "Ken Vermette",
                "Name[x-test]": "xxKen Vermettexx",
                "Name[zh_CN]": "Ken Vermette"
            }
        ],
        "Id": "Next",
        "License": "CC-BY-SA-4.0",
        "Name": "Honeywave",
        "Name[ar]": "موجة العسل",
        "Name[az]": "Bal dalğası",
        "Name[be]": "Мядовая хваля",
        "Name[ca@valencia]": "Honeywave",
        "Name[ca]": "Honeywave",
        "Name[cs]": "Vlna medu",
        "Name[de]": "Honeywave",
        "Name[en_GB]": "Honeywave",
        "Name[es]": "Honeywave",
        "Name[eu]": "Honeywave",
        "Name[fi]": "Hunaja-aalto",
        "Name[fr]": "Onde de miel",
        "Name[ia]": "Honeywave",
        "Name[it]": "Honeywave",
        "Name[ka]": "Honeywave",
        "Name[ko]": "허니웨이브",
        "Name[lt]": "Medaus banga",
        "Name[nl]": "Honeywave",
        "Name[nn]": "Honningbølgje",
        "Name[pl]": "Fala miodu",
        "Name[pt]": "Onda de Mel",
        "Name[pt_BR]": "Onda de mel",
        "Name[ro]": "Honeywave",
        "Name[ru]": "Медовая волна",
        "Name[sk]": "Medová vlna",
        "Name[sl]": "Medeni val",
        "Name[sv]": "Honungsvåg",
        "Name[tr]": "Bal Dalgası",
        "Name[uk]": "Медова хвиля",
        "Name[x-test]": "xxHoneywavexx",
        "Name[zh_CN]": "Honeywave 金波"
    }
}
