{
    "KPlugin": {
        "Authors": [
            {
                "Email": "aronkvh@gmail.com",
                "Name": "Áron Kovács",
                "Name[ar]": "Áron Kovács",
                "Name[az]": "Áron Kovács",
                "Name[be]": "Áron Kovács",
                "Name[ca@valencia]": "Áron Kovács",
                "Name[ca]": "Áron Kovács",
                "Name[en_GB]": "Áron Kovács",
                "Name[es]": "Áron Kovács",
                "Name[eu]": "Áron Kovács",
                "Name[fi]": "Áron Kovács",
                "Name[fr]": "Áron Kovács",
                "Name[it]": "Áron Kovács",
                "Name[ka]": "Áron Kovács",
                "Name[ko]": "Áron Kovács",
                "Name[lt]": "Áron Kovács",
                "Name[nl]": "Áron Kovács",
                "Name[nn]": "Áron Kovács",
                "Name[pl]": "Áron Kovács",
                "Name[pt]": "Áron Kovács",
                "Name[pt_BR]": "Áron Kovács",
                "Name[ru]": "Áron Kovács",
                "Name[sk]": "Áron Kovács",
                "Name[sl]": "Áron Kovács",
                "Name[sv]": "Áron Kovács",
                "Name[tr]": "Áron Kovács",
                "Name[uk]": "Арон Ковач",
                "Name[x-test]": "xxÁron Kovácsxx",
                "Name[zh_CN]": "Áron Kovács"
            }
        ],
        "Id": "Next",
        "License": "CC-BY-SA-4.0",
        "Name": "Patak",
        "Name[ar]": "بتك",
        "Name[az]": "Patak",
        "Name[be]": "Патак",
        "Name[ca@valencia]": "Patak",
        "Name[ca]": "Patak",
        "Name[cs]": "Patak",
        "Name[da]": "Patak",
        "Name[de]": "Patak",
        "Name[en_GB]": "Patak",
        "Name[es]": "Patak",
        "Name[eu]": "Patak",
        "Name[fi]": "Patak",
        "Name[fr]": "Patak",
        "Name[hi]": "पेटैक",
        "Name[hu]": "Patak",
        "Name[ia]": "Patak",
        "Name[it]": "Patak",
        "Name[ka]": "სოუსი",
        "Name[ko]": "파탁",
        "Name[lt]": "Patak",
        "Name[nl]": "Patak",
        "Name[nn]": "Patak",
        "Name[pl]": "Patak",
        "Name[pt]": "Patak",
        "Name[pt_BR]": "Patak",
        "Name[ro]": "Patak",
        "Name[ru]": "Ручей",
        "Name[sk]": "Patak",
        "Name[sl]": "Patak",
        "Name[sv]": "Patak",
        "Name[tr]": "Patak",
        "Name[uk]": "Патак",
        "Name[x-test]": "xxPatakxx",
        "Name[zh_CN]": "Patak 寒溪"
    }
}
