{
    "KPlugin": {
        "Authors": [
            {
                "Email": "",
                "Name": "Nuno Pinheiro",
                "Name[ar]": "Nuno Pinheiro",
                "Name[az]": "Nuno Pinheiro",
                "Name[be]": "Nuno Pinheiro",
                "Name[ca@valencia]": "Nuno Pinheiro",
                "Name[ca]": "Nuno Pinheiro",
                "Name[en_GB]": "Nuno Pinheiro",
                "Name[es]": "Nuno Pinheiro",
                "Name[eu]": "Nuno Pinheiro",
                "Name[fi]": "Nuno Pinheiro",
                "Name[fr]": "Nuno Pinheiro",
                "Name[it]": "Nuno Pinheiro",
                "Name[ka]": "Nuno Pinheiro",
                "Name[ko]": "Nuno Pinheiro",
                "Name[lt]": "Nuno Pinheiro",
                "Name[nl]": "Nuno Pinheiro",
                "Name[nn]": "Nuno Pinheiro",
                "Name[pl]": "Nuno Pinheiro",
                "Name[pt]": "Nuno Pinheiro",
                "Name[pt_BR]": "Nuno Pinheiro",
                "Name[ru]": "Nuno Pinheiro",
                "Name[sk]": "Nuno Pinheiro",
                "Name[sl]": "Nuno Pinheiro",
                "Name[sv]": "Nuno Pinheiro",
                "Name[tr]": "Nuno Pinheiro",
                "Name[uk]": "Нуно Пінейро",
                "Name[x-test]": "xxNuno Pinheiroxx",
                "Name[zh_CN]": "Nuno Pinheiro"
            }
        ],
        "Id": "Elarun",
        "License": "LGPLv3",
        "Name": "Elarun",
        "Name[ar]": "إلارون",
        "Name[az]": "Elaran",
        "Name[be]": "Эларун",
        "Name[ca@valencia]": "Elarun",
        "Name[ca]": "Elarun",
        "Name[cs]": "Elarun",
        "Name[da]": "Elarun",
        "Name[de]": "Elarun",
        "Name[en_GB]": "Elarun",
        "Name[es]": "Elarun",
        "Name[et]": "Elarun",
        "Name[eu]": "Elarun",
        "Name[fi]": "Elarun",
        "Name[fr]": "Elarun",
        "Name[gl]": "Elarun",
        "Name[hi]": "एलारुन",
        "Name[hu]": "Elarun",
        "Name[ia]": "Elarun",
        "Name[id]": "Elarun",
        "Name[it]": "Elarun",
        "Name[ka]": "ელარუნი",
        "Name[ko]": "엘라룬",
        "Name[lt]": "Elarun",
        "Name[nl]": "Elarun",
        "Name[nn]": "Elarun",
        "Name[pl]": "Elarun",
        "Name[pt]": "Elarun",
        "Name[pt_BR]": "Elarun",
        "Name[ro]": "Elarun",
        "Name[ru]": "Эларан",
        "Name[sk]": "Elarun",
        "Name[sl]": "Elarun",
        "Name[sv]": "Elarun",
        "Name[tg]": "Қанот",
        "Name[tr]": "Elarun",
        "Name[uk]": "Ілеран",
        "Name[x-test]": "xxElarunxx",
        "Name[zh_CN]": "Elarun 虚幻",
        "Name[zh_TW]": "Elarun"
    }
}
