{
    "KPlugin": {
        "Authors": [
            {
                "Email": "",
                "Name": "Lionel",
                "Name[ar]": "Lionel",
                "Name[az]": "Lionel",
                "Name[be]": "Lionel",
                "Name[ca@valencia]": "Lionel",
                "Name[ca]": "Lionel",
                "Name[en_GB]": "Lionel",
                "Name[es]": "Lionel",
                "Name[eu]": "Lionel",
                "Name[fi]": "Lionel",
                "Name[fr]": "Lionel",
                "Name[it]": "Lionel",
                "Name[ka]": "Lionel",
                "Name[ko]": "Lionel",
                "Name[lt]": "Lionel",
                "Name[nl]": "Lionel",
                "Name[nn]": "Lionel",
                "Name[pl]": "Lionel",
                "Name[pt]": "Lionel",
                "Name[pt_BR]": "Lionel",
                "Name[ru]": "Lionel",
                "Name[sk]": "Lionel",
                "Name[sl]": "Lionel",
                "Name[sv]": "Lionel",
                "Name[tr]": "Lionel",
                "Name[uk]": "Ліонель",
                "Name[x-test]": "xxLionelxx",
                "Name[zh_CN]": "Lionel"
            }
        ],
        "Id": "PastelHills",
        "License": "LGPLv3",
        "Name": "Pastel Hills",
        "Name[ar]": "تلال الباستيل",
        "Name[az]": "Pastel Təpələri",
        "Name[be]": "Пасцельныя пагоркі",
        "Name[ca@valencia]": "Pastel Hills",
        "Name[ca]": "Pastel Hills",
        "Name[cs]": "Pastelové kopce",
        "Name[da]": "Pastelbakker",
        "Name[de]": "Pastell-Hügel",
        "Name[en_GB]": "Pastel Hills",
        "Name[es]": "Colinas pastel",
        "Name[et]": "Pastelsed künkad",
        "Name[eu]": "Pastel muinoak",
        "Name[fi]": "Pastellikukkulat",
        "Name[fr]": "Collines pastel",
        "Name[gl]": "Outeiros pastel",
        "Name[hi]": "पेस्टल पहाड",
        "Name[hu]": "Pasztell dombok",
        "Name[ia]": "Pastel Hills (Collinas de pastello)",
        "Name[id]": "Pastel Hills",
        "Name[it]": "Colline pastello",
        "Name[ka]": "დახატული მთები",
        "Name[ko]": "파스텔 언덕",
        "Name[lt]": "Pastelės kalnai",
        "Name[nl]": "Heuvels in pastel",
        "Name[nn]": "Åsar av pastell",
        "Name[pa]": "ਰੰਗੀਨ ਪਹਾੜੀਆਂ",
        "Name[pl]": "Pastelowe wzgórza",
        "Name[pt]": "Colinas em Pastel",
        "Name[pt_BR]": "Colinas em pastel",
        "Name[ro]": "Dealuri pastelate",
        "Name[ru]": "Пастельные холмы",
        "Name[sk]": "Pastelové kopce",
        "Name[sl]": "Pastelni hribi",
        "Name[sr@ijekavian]": "Пастелни брежуљци",
        "Name[sr@ijekavianlatin]": "Pastelni brežuljci",
        "Name[sr@latin]": "Pastelni brežuljci",
        "Name[sr]": "Пастелни брежуљци",
        "Name[sv]": "Pastellhöjder",
        "Name[tg]": "Теппаҳои рангин",
        "Name[tr]": "Pastel Tepeler",
        "Name[uk]": "Пастельні пагорби",
        "Name[x-test]": "xxPastel Hillsxx",
        "Name[zh_CN]": "Pastel Hills 粉岭",
        "Name[zh_TW]": "山丘"
    }
}
