{
    "KPlugin": {
        "Authors": [
            {
                "Email": "paristo@gmail.com",
                "Name": "Risto Saukonpää",
                "Name[ar]": "Risto Saukonpää",
                "Name[az]": "Risto Saukonpää",
                "Name[be]": "Risto Saukonpää",
                "Name[ca@valencia]": "Risto Saukonpää",
                "Name[ca]": "Risto Saukonpää",
                "Name[en_GB]": "Risto Saukonpää",
                "Name[es]": "Risto Saukonpää",
                "Name[eu]": "Risto Saukonpää",
                "Name[fi]": "Risto Saukonpää",
                "Name[fr]": "Risto Saukonpää",
                "Name[it]": "Risto Saukonpää",
                "Name[ka]": "Risto Saukonpää",
                "Name[ko]": "Risto Saukonpää",
                "Name[lt]": "Risto Saukonpää",
                "Name[nl]": "Risto Saukonpää",
                "Name[nn]": "Risto Saukonpää",
                "Name[pl]": "Risto Saukonpää",
                "Name[pt]": "Risto Saukonpää",
                "Name[pt_BR]": "Risto Saukonpää",
                "Name[ru]": "Risto Saukonpää",
                "Name[sk]": "Risto Saukonpää",
                "Name[sl]": "Risto Saukonpää",
                "Name[sv]": "Risto Saukonpää",
                "Name[tr]": "Risto Saukonpää",
                "Name[uk]": "Рісто Сауконпаа",
                "Name[x-test]": "xxRisto Saukonpääxx",
                "Name[zh_CN]": "Risto Saukonpää"
            }
        ],
        "Id": "ColdRipple",
        "License": "LGPLv3",
        "Name": "Cold Ripple",
        "Name[ar]": "موجة برد",
        "Name[az]": "Soyuq Dalğa",
        "Name[be]": "Халодная рабізна",
        "Name[ca@valencia]": "Onada de fred",
        "Name[ca]": "Onada de fred",
        "Name[da]": "Cold Ripple",
        "Name[de]": "Kaltes Plätschern",
        "Name[en_GB]": "Cold Ripple",
        "Name[es]": "Ola de frío",
        "Name[et]": "Külmavirvendus",
        "Name[eu]": "Hotz-bolada",
        "Name[fi]": "Kylmä väre",
        "Name[fr]": "Vague froide",
        "Name[gl]": "Ondas frías",
        "Name[hi]": "सर्द लहर",
        "Name[hu]": "Hideg fodor",
        "Name[ia]": "Cold Ripple(Susurro frigide)",
        "Name[id]": "Cold Ripple",
        "Name[it]": "Ondata di gelo",
        "Name[ka]": "ცივი ჭავლი",
        "Name[ko]": "선착장",
        "Name[lt]": "Šaltas bangos efektas",
        "Name[nl]": "Koude rimpel",
        "Name[nn]": "Kald dukkert",
        "Name[pa]": "ਠੰਡੀ ਲਹਿਰ",
        "Name[pl]": "Zimna fala",
        "Name[pt]": "Onda Fria",
        "Name[pt_BR]": "Onda fria",
        "Name[ro]": "Susur rece",
        "Name[ru]": "Холодная рябь",
        "Name[sk]": "Studené vlnenie",
        "Name[sl]": "Mrzli valovi",
        "Name[sr@ijekavian]": "Хладно мрешкање",
        "Name[sr@ijekavianlatin]": "Hladno mreškanje",
        "Name[sr@latin]": "Hladno mreškanje",
        "Name[sr]": "Хладно мрешкање",
        "Name[sv]": "Kall krusning",
        "Name[tg]": "Маҳалли пасту баланд",
        "Name[tr]": "Soğuk Dalgalanma",
        "Name[uk]": "Холодні брижі",
        "Name[x-test]": "xxCold Ripplexx",
        "Name[zh_CN]": "Cold Ripple 寒波",
        "Name[zh_TW]": "水波紋"
    }
}
