{
    "KPlugin": {
        "Authors": [
            {
                "Name": "Ian Hex",
                "Name[ar]": "Ian Hex",
                "Name[az]": "Ian Hex",
                "Name[be]": "Ian Hex",
                "Name[ca@valencia]": "Ian Hex",
                "Name[ca]": "Ian Hex",
                "Name[en_GB]": "Ian Hex",
                "Name[es]": "Ian Hex",
                "Name[eu]": "Ian Hex",
                "Name[fi]": "Ian Hex",
                "Name[fr]": "Ian Hex",
                "Name[it]": "Ian Hex",
                "Name[ka]": "Ian Hex",
                "Name[ko]": "Ian Hex",
                "Name[lt]": "Ian Hex",
                "Name[nl]": "Ian Hex",
                "Name[nn]": "Ian Hex",
                "Name[pl]": "Ian Hex",
                "Name[pt]": "Ian Hex",
                "Name[pt_BR]": "Ian Hex",
                "Name[ru]": "Ian Hex",
                "Name[sk]": "Ian Hex",
                "Name[sl]": "Ian Hex",
                "Name[sv]": "Ian Hex",
                "Name[tr]": "Ian Hex",
                "Name[uk]": "Ян Гекс",
                "Name[x-test]": "xxIan Hexxx",
                "Name[zh_CN]": "Ian Hex"
            }
        ],
        "Id": "EveningGlow",
        "License": "LGPLv3",
        "Name": "Evening Glow",
        "Name[ar]": "وهج المساء",
        "Name[az]": "Axşam Şəfəqi",
        "Name[be]": "Вечаровае ззянне",
        "Name[ca@valencia]": "Lluïssor de capvespre",
        "Name[ca]": "Lluïssor de capvespre",
        "Name[da]": "Aftenglød",
        "Name[de]": "Abendröte",
        "Name[en_GB]": "Evening Glow",
        "Name[es]": "Resplandor al atardecer",
        "Name[et]": "Õhtusära",
        "Name[eu]": "Arratseko oskorri",
        "Name[fi]": "Iltaruskon kajo",
        "Name[fr]": "Lueur du soir",
        "Name[gl]": "Brillo matinal",
        "Name[hi]": "संध्या प्रभा",
        "Name[hu]": "Sarki fény",
        "Name[ia]": "Evening Glow (brillantia de vespere)",
        "Name[id]": "Evening Glow",
        "Name[it]": "Bagliore serale",
        "Name[ka]": "საღამოს ნათება",
        "Name[ko]": "저녁 노을",
        "Name[lt]": "Vakaro žara",
        "Name[nl]": "Avondrood",
        "Name[nn]": "Kveldsglød",
        "Name[pa]": "ਚਮਕਦੀਆਂ ਤਰਕਾਲਾਂ",
        "Name[pl]": "Wieczorna poświata",
        "Name[pt]": "Brilho do Entardecer",
        "Name[pt_BR]": "Brilho do entardecer",
        "Name[ro]": "Strălucire nocturnă",
        "Name[ru]": "Вечернее зарево",
        "Name[sk]": "Večerná žiara",
        "Name[sl]": "Večerni žar",
        "Name[sr@ijekavian]": "Вечерњи сјај",
        "Name[sr@ijekavianlatin]": "Večernji sjaj",
        "Name[sr@latin]": "Večernji sjaj",
        "Name[sr]": "Вечерњи сјај",
        "Name[sv]": "Aftonglöd",
        "Name[tg]": "Шафақи шом",
        "Name[tr]": "Akşam Kızıllığı",
        "Name[uk]": "Вечірнє сяйво",
        "Name[x-test]": "xxEvening Glowxx",
        "Name[zh_CN]": "Evening Glow 晚霞",
        "Name[zh_TW]": "傍晚的閃光"
    }
}
