{
    "KPlugin": {
        "Authors": [
            {
                "Email": "",
                "Name": "Ken Vermette",
                "Name[ar]": "Ken Vermette",
                "Name[az]": "Ken Vermette",
                "Name[be]": "Ken Vermette",
                "Name[ca@valencia]": "Ken Vermette",
                "Name[ca]": "Ken Vermette",
                "Name[en_GB]": "Ken Vermette",
                "Name[es]": "Ken Vermette",
                "Name[eu]": "Ken Vermette",
                "Name[fi]": "Ken Vermette",
                "Name[fr]": "Ken Vermette",
                "Name[it]": "Ken Vermette",
                "Name[ka]": "Ken Vermette",
                "Name[ko]": "Ken Vermette",
                "Name[lt]": "Ken Vermette",
                "Name[nl]": "Ken Vermette",
                "Name[nn]": "Ken Vermette",
                "Name[pl]": "Ken Vermette",
                "Name[pt]": "Ken Vermette",
                "Name[pt_BR]": "Ken Vermette",
                "Name[ru]": "Ken Vermette",
                "Name[sk]": "Ken Vermette",
                "Name[sl]": "Ken Vermette",
                "Name[sv]": "Ken Vermette",
                "Name[tr]": "Ken Vermette",
                "Name[uk]": "Ken Vermette",
                "Name[x-test]": "xxKen Vermettexx",
                "Name[zh_CN]": "Ken Vermette"
            }
        ],
        "Id": "Canopée",
        "License": "LGPLv3",
        "Name": "Canopée",
        "Name[ar]": "كانوبي",
        "Name[az]": "Çadır",
        "Name[be]": "Канопэ",
        "Name[ca@valencia]": "Canopée",
        "Name[ca]": "Canopée",
        "Name[cs]": "Canopus",
        "Name[da]": "Canopée",
        "Name[de]": "Canopée",
        "Name[en_GB]": "Canopée",
        "Name[es]": "Techo forestal",
        "Name[et]": "Kanapee",
        "Name[eu]": "Canopée",
        "Name[fi]": "Canopée",
        "Name[fr]": "Canopée",
        "Name[gl]": "Dosel forestal",
        "Name[hi]": "मंडप",
        "Name[hu]": "Canopée",
        "Name[ia]": "Canopée",
        "Name[id]": "Canopée",
        "Name[it]": "Baldacchino",
        "Name[ka]": "ჩარდახი",
        "Name[ko]": "캐노피",
        "Name[lt]": "Skliautas",
        "Name[nl]": "Canopée",
        "Name[nn]": "Canopée",
        "Name[pl]": "Canopée",
        "Name[pt]": "Canopée",
        "Name[pt_BR]": "Marquise",
        "Name[ro]": "Canopée",
        "Name[ru]": "Купол",
        "Name[sk]": "Canopée",
        "Name[sl]": "Drevesna krošnja",
        "Name[sv]": "Canopée",
        "Name[tg]": "Маҷмӯа",
        "Name[tr]": "Gölgelik",
        "Name[uk]": "Канапа",
        "Name[x-test]": "xxCanopéexx",
        "Name[zh_CN]": "Canopée 华盖",
        "Name[zh_TW]": "Canopée"
    }
}
